{
 "charts": [],
 "color": "#aec8ff",
 "content": "[{\"id\":\"y0yzwMgs_r\",\"type\":\"number_card\",\"data\":{\"number_card_name\":\"Active Workflows\",\"col\":4}},{\"id\":\"ZYfVsAMiJF\",\"type\":\"number_card\",\"data\":{\"number_card_name\":\"Incoming Email Accounts\",\"col\":4}},{\"id\":\"_ccW9WCO1-\",\"type\":\"number_card\",\"data\":{\"number_card_name\":\"Outgoing Email Accounts\",\"col\":4}},{\"id\":\"XBf792HRWR\",\"type\":\"header\",\"data\":{\"text\":\"<span class=\\\"h4\\\"><b>Param\u00e8tres principaux</b></span>\",\"col\":12}},{\"id\":\"jl5AVVRU_o\",\"type\":\"shortcut\",\"data\":{\"shortcut_name\":\"System Settings\",\"col\":3}},{\"id\":\"R2Lh-Ol30q\",\"type\":\"shortcut\",\"data\":{\"shortcut_name\":\"Print Settings\",\"col\":3}},{\"id\":\"PMXMZUyvk6\",\"type\":\"shortcut\",\"data\":{\"shortcut_name\":\"Website Settings\",\"col\":3}},{\"id\":\"D9Jkba7yty\",\"type\":\"shortcut\",\"data\":{\"shortcut_name\":\"Document Naming Settings\",\"col\":3}},{\"id\":\"ZfcBNGXtho\",\"type\":\"shortcut\",\"data\":{\"shortcut_name\":\"Navbar Settings\",\"col\":3}},{\"id\":\"bVDxxxe_81\",\"type\":\"spacer\",\"data\":{\"col\":12}},{\"id\":\"ZFKjOn3dMz\",\"type\":\"header\",\"data\":{\"text\":\"<span class=\\\"h4\\\"><b>Param\u00e8tres additionnels &amp; Options</b></span>\",\"col\":12}},{\"id\":\"S5noCgPlpg\",\"type\":\"card\",\"data\":{\"card_name\":\"Data\",\"col\":4}},{\"id\":\"Vj7kZsZMgC\",\"type\":\"card\",\"data\":{\"card_name\":\"Email & Notifications\",\"col\":4}},{\"id\":\"O3KpcE1o2y\",\"type\":\"card\",\"data\":{\"card_name\":\"Website\",\"col\":4}},{\"id\":\"pKq7Zc7OrY\",\"type\":\"card\",\"data\":{\"card_name\":\"Core\",\"col\":4}},{\"id\":\"lep26xOJX2\",\"type\":\"card\",\"data\":{\"card_name\":\"Printing\",\"col\":4}},{\"id\":\"bpdh3uPFf-\",\"type\":\"card\",\"data\":{\"card_name\":\"Workflow\",\"col\":4}},{\"id\":\"gPLU914vj2\",\"type\":\"card\",\"data\":{\"card_name\":\"Master Data\",\"col\":4}}]",
 "creation": "2020-03-02 15:09:40.527211",
 "custom_blocks": [],
 "docstatus": 0,
 "doctype": "Workspace",
 "for_user": "",
 "hide_custom": 0,
 "icon": "setting",
 "idx": 0,
 "is_hidden": 0,
 "is_standard": 1,
 "label": "Settings",
 "links": [
  {
   "columns": 0,
   "hidden": 0,
   "is_query_report": 0,
   "label": "Website",
   "link_count": 0,
   "onboard": 0,
   "type": "Card Break"
  },
  {
   "columns": 0,
   "dependencies": "",
   "hidden": 0,
   "is_query_report": 0,
   "label": "Website Settings",
   "link_count": 0,
   "link_to": "Website Settings",
   "link_type": "DocType",
   "onboard": 1,
   "type": "Link"
  },
  {
   "columns": 0,
   "dependencies": "",
   "hidden": 0,
   "is_query_report": 0,
   "label": "Website Theme",
   "link_count": 0,
   "link_to": "Website Theme",
   "link_type": "DocType",
   "onboard": 1,
   "type": "Link"
  },
  {
   "columns": 0,
   "dependencies": "",
   "hidden": 0,
   "is_query_report": 0,
   "label": "Website Script",
   "link_count": 0,
   "link_to": "Website Script",
   "link_type": "DocType",
   "onboard": 0,
   "type": "Link"
  },
  {
   "columns": 0,
   "dependencies": "",
   "hidden": 0,
   "is_query_report": 0,
   "label": "About Us Settings",
   "link_count": 0,
   "link_to": "About Us Settings",
   "link_type": "DocType",
   "onboard": 0,
   "type": "Link"
  },
  {
   "columns": 0,
   "dependencies": "",
   "hidden": 0,
   "is_query_report": 0,
   "label": "Contact Us Settings",
   "link_count": 0,
   "link_to": "Contact Us Settings",
   "link_type": "DocType",
   "onboard": 0,
   "type": "Link"
  },
  {
   "columns": 0,
   "hidden": 0,
   "is_query_report": 0,
   "label": "Workflow",
   "link_count": 0,
   "onboard": 0,
   "type": "Card Break"
  },
  {
   "columns": 0,
   "dependencies": "",
   "hidden": 0,
   "is_query_report": 0,
   "label": "Workflow",
   "link_count": 0,
   "link_to": "Workflow",
   "link_type": "DocType",
   "onboard": 0,
   "type": "Link"
  },
  {
   "columns": 0,
   "dependencies": "",
   "hidden": 0,
   "is_query_report": 0,
   "label": "Workflow State",
   "link_count": 0,
   "link_to": "Workflow State",
   "link_type": "DocType",
   "onboard": 0,
   "type": "Link"
  },
  {
   "columns": 0,
   "dependencies": "",
   "hidden": 0,
   "is_query_report": 0,
   "label": "Workflow Action",
   "link_count": 0,
   "link_to": "Workflow Action",
   "link_type": "DocType",
   "onboard": 0,
   "type": "Link"
  },
  {
   "columns": 0,
   "hidden": 0,
   "is_query_report": 0,
   "label": "Data",
   "link_count": 5,
   "onboard": 0,
   "type": "Card Break"
  },
  {
   "columns": 0,
   "dependencies": "",
   "hidden": 0,
   "is_query_report": 0,
   "label": "Import Data",
   "link_count": 0,
   "link_to": "Data Import",
   "link_type": "DocType",
   "onboard": 0,
   "type": "Link"
  },
  {
   "columns": 0,
   "dependencies": "",
   "hidden": 0,
   "is_query_report": 0,
   "label": "Export Data",
   "link_count": 0,
   "link_to": "Data Export",
   "link_type": "DocType",
   "onboard": 0,
   "type": "Link"
  },
  {
   "columns": 0,
   "dependencies": "",
   "hidden": 0,
   "is_query_report": 0,
   "label": "Bulk Update",
   "link_count": 0,
   "link_to": "Bulk Update",
   "link_type": "DocType",
   "onboard": 0,
   "type": "Link"
  },
  {
   "columns": 0,
   "dependencies": "",
   "hidden": 0,
   "is_query_report": 0,
   "label": "Download Backups",
   "link_count": 0,
   "link_to": "backups",
   "link_type": "Page",
   "onboard": 0,
   "type": "Link"
  },
  {
   "columns": 0,
   "dependencies": "",
   "hidden": 0,
   "is_query_report": 0,
   "label": "Deleted Documents",
   "link_count": 0,
   "link_to": "Deleted Document",
   "link_type": "DocType",
   "onboard": 0,
   "type": "Link"
  },
  {
   "columns": 0,
   "hidden": 0,
   "is_query_report": 0,
   "label": "Printing",
   "link_count": 7,
   "onboard": 0,
   "type": "Card Break"
  },
  {
   "columns": 0,
   "dependencies": "",
   "hidden": 0,
   "is_query_report": 0,
   "label": "Print Format Builder",
   "link_count": 0,
   "link_to": "print-format-builder",
   "link_type": "Page",
   "onboard": 0,
   "type": "Link"
  },
  {
   "columns": 0,
   "dependencies": "",
   "hidden": 0,
   "is_query_report": 0,
   "label": "Print Settings",
   "link_count": 0,
   "link_to": "Print Settings",
   "link_type": "DocType",
   "onboard": 0,
   "type": "Link"
  },
  {
   "columns": 0,
   "dependencies": "",
   "hidden": 0,
   "is_query_report": 0,
   "label": "Print Format",
   "link_count": 0,
   "link_to": "Print Format",
   "link_type": "DocType",
   "onboard": 0,
   "type": "Link"
  },
  {
   "columns": 0,
   "dependencies": "",
   "hidden": 0,
   "is_query_report": 0,
   "label": "Print Style",
   "link_count": 0,
   "link_to": "Print Style",
   "link_type": "DocType",
   "onboard": 0,
   "type": "Link"
  },
  {
   "columns": 0,
   "hidden": 0,
   "is_query_report": 0,
   "label": "Letter Head",
   "link_count": 0,
   "link_to": "Letter Head",
   "link_type": "DocType",
   "onboard": 0,
   "type": "Link"
  },
  {
   "columns": 0,
   "hidden": 0,
   "is_query_report": 0,
   "label": "Print Heading",
   "link_count": 0,
   "link_to": "Print Heading",
   "link_type": "DocType",
   "onboard": 0,
   "type": "Link"
  },
  {
   "columns": 0,
   "hidden": 0,
   "is_query_report": 0,
   "label": "Cover Page",
   "link_count": 0,
   "link_to": "Cover Page",
   "link_type": "DocType",
   "onboard": 0,
   "type": "Link"
  },
  {
   "columns": 0,
   "hidden": 0,
   "is_query_report": 0,
   "label": "Email & Notifications",
   "link_count": 8,
   "onboard": 0,
   "type": "Card Break"
  },
  {
   "columns": 0,
   "dependencies": "",
   "hidden": 0,
   "is_query_report": 0,
   "label": "Email Account",
   "link_count": 0,
   "link_to": "Email Account",
   "link_type": "DocType",
   "onboard": 0,
   "type": "Link"
  },
  {
   "columns": 0,
   "dependencies": "",
   "hidden": 0,
   "is_query_report": 0,
   "label": "Email Domain",
   "link_count": 0,
   "link_to": "Email Domain",
   "link_type": "DocType",
   "onboard": 0,
   "type": "Link"
  },
  {
   "columns": 0,
   "dependencies": "",
   "hidden": 0,
   "is_query_report": 0,
   "label": "Email Template",
   "link_count": 0,
   "link_to": "Email Template",
   "link_type": "DocType",
   "onboard": 0,
   "type": "Link"
  },
  {
   "columns": 0,
   "dependencies": "",
   "hidden": 0,
   "is_query_report": 0,
   "label": "Notification",
   "link_count": 0,
   "link_to": "Notification",
   "link_type": "DocType",
   "onboard": 0,
   "type": "Link"
  },
  {
   "columns": 0,
   "dependencies": "",
   "hidden": 0,
   "is_query_report": 0,
   "label": "Auto Email Report",
   "link_count": 0,
   "link_to": "Auto Email Report",
   "link_type": "DocType",
   "onboard": 0,
   "type": "Link"
  },
  {
   "columns": 0,
   "dependencies": "",
   "hidden": 0,
   "is_query_report": 0,
   "label": "Newsletter",
   "link_count": 0,
   "link_to": "Newsletter",
   "link_type": "DocType",
   "onboard": 0,
   "type": "Link"
  },
  {
   "columns": 0,
   "hidden": 0,
   "is_query_report": 0,
   "label": "Incoming Webhook URL",
   "link_count": 0,
   "link_to": "Incoming Webhook URL",
   "link_type": "DocType",
   "onboard": 0,
   "type": "Link"
  },
  {
   "columns": 0,
   "dependencies": "",
   "hidden": 0,
   "is_query_report": 0,
   "label": "Notification Settings",
   "link_count": 0,
   "link_to": "Notification Settings",
   "link_type": "DocType",
   "onboard": 0,
   "type": "Link"
  },
  {
   "columns": 0,
   "hidden": 0,
   "is_query_report": 0,
   "label": "Master Data",
   "link_count": 3,
   "onboard": 0,
   "type": "Card Break"
  },
  {
   "columns": 0,
   "hidden": 0,
   "is_query_report": 0,
   "label": "Country",
   "link_count": 0,
   "link_to": "Country",
   "link_type": "DocType",
   "onboard": 0,
   "type": "Link"
  },
  {
   "columns": 0,
   "hidden": 0,
   "is_query_report": 0,
   "label": "Currency",
   "link_count": 0,
   "link_to": "Currency",
   "link_type": "DocType",
   "onboard": 0,
   "type": "Link"
  },
  {
   "columns": 0,
   "hidden": 0,
   "is_query_report": 0,
   "label": "Language",
   "link_count": 0,
   "link_to": "Language",
   "link_type": "DocType",
   "onboard": 0,
   "type": "Link"
  },
  {
   "columns": 0,
   "hidden": 0,
   "is_query_report": 0,
   "label": "Core",
   "link_count": 3,
   "onboard": 0,
   "type": "Card Break"
  },
  {
   "columns": 0,
   "hidden": 0,
   "is_query_report": 0,
   "label": "Installed Applications",
   "link_count": 0,
   "link_to": "Installed Applications",
   "link_type": "DocType",
   "onboard": 0,
   "type": "Link"
  },
  {
   "columns": 0,
   "hidden": 0,
   "is_query_report": 0,
   "label": "Session Default Settings",
   "link_count": 0,
   "link_to": "Session Default Settings",
   "link_type": "DocType",
   "onboard": 0,
   "type": "Link"
  },
  {
   "columns": 0,
   "hidden": 0,
   "is_query_report": 0,
   "label": "Log Settings",
   "link_count": 0,
   "link_to": "Log Settings",
   "link_type": "DocType",
   "onboard": 0,
   "type": "Link"
  }
 ],
 "modified": "2024-01-16 18:30:02.623433",
 "modified_by": "Administrator",
 "module": "Core",
 "name": "Settings",
 "number_cards": [
  {
   "label": "Active Workflows",
   "number_card_name": "Active Workflows"
  },
  {
   "label": "Incoming Email Accounts",
   "number_card_name": "Incoming Email Accounts"
  },
  {
   "label": "Outgoing Email Accounts",
   "number_card_name": "Outgoing Email Accounts"
  }
 ],
 "owner": "Administrator",
 "parent_page": "Administration",
 "public": 1,
 "quick_lists": [],
 "restrict_to_domain": "",
 "roles": [
  {
   "role": "System Manager"
  }
 ],
 "sequence_id": 40.0,
 "shortcuts": [
  {
   "color": "Gray",
   "columns": 3,
   "doc_view": "",
   "icon": "dot-horizontal",
   "label": "Document Naming Settings",
   "link_to": "Document Naming Settings",
   "type": "DocType"
  },
  {
   "color": "Gray",
   "columns": 3,
   "doc_view": "",
   "icon": "website",
   "label": "Navbar Settings",
   "link_to": "Navbar Settings",
   "type": "DocType"
  },
  {
   "columns": 0,
   "icon": "setting",
   "label": "System Settings",
   "link_to": "System Settings",
   "type": "DocType"
  },
  {
   "columns": 0,
   "icon": "printer",
   "label": "Print Settings",
   "link_to": "Print Settings",
   "type": "DocType"
  },
  {
   "columns": 0,
   "icon": "website",
   "label": "Website Settings",
   "link_to": "Website Settings",
   "type": "DocType"
  }
 ],
 "title": "Settings"
}