{
 "actions": [],
 "allow_rename": 1,
 "autoname": "Prompt",
 "creation": "2014-07-11 17:18:09.923399",
 "doctype": "DocType",
 "document_type": "System",
 "engine": "InnoDB",
 "field_order": [
  "enabled",
  "column_break_2",
  "is_standard",
  "module",
  "expedition_section",
  "channel",
  "incoming_webhook_url",
  "sender",
  "sender_email",
  "column_break_10",
  "send_system_notification",
  "trigger_section",
  "document_type",
  "event",
  "method",
  "date_changed",
  "days_in_advance",
  "value_changed",
  "col_break_1",
  "condition",
  "html_7",
  "column_break_5",
  "send_to_all_assignees",
  "recipients",
  "message_sb",
  "subject",
  "message_type",
  "message",
  "message_examples",
  "markdown_message_examples",
  "view_properties",
  "column_break_25",
  "attach_print",
  "print_format",
  "property_section",
  "set_property_after_alert",
  "property_value"
 ],
 "fields": [
  {
   "default": "1",
   "fieldname": "enabled",
   "fieldtype": "Check",
   "label": "Enabled"
  },
  {
   "fieldname": "column_break_2",
   "fieldtype": "Column Break"
  },
  {
   "default": "Email",
   "fieldname": "channel",
   "fieldtype": "Select",
   "in_list_view": 1,
   "in_standard_filter": 1,
   "label": "Channel",
   "options": "Email\nExternal Collaboration Tool\nSystem Notification\nSMS",
   "reqd": 1,
   "set_only_once": 1
  },
  {
   "depends_on": "eval: in_list(['Email', 'External Collaboration Tool', 'System Notification'], doc.channel)",
   "description": "To add dynamic subject, use jinja tags like\n\n<div><pre><code>{{ doc.name }} Delivered</code></pre></div>",
   "fieldname": "subject",
   "fieldtype": "Data",
   "ignore_xss_filter": 1,
   "in_list_view": 1,
   "label": "Subject",
   "mandatory_depends_on": "eval: in_list(['Email', 'External Collaboration Tool', 'System Notification'], doc.channel)"
  },
  {
   "fieldname": "document_type",
   "fieldtype": "Link",
   "in_list_view": 1,
   "in_standard_filter": 1,
   "label": "Document Type",
   "options": "DocType",
   "reqd": 1,
   "search_index": 1
  },
  {
   "default": "0",
   "depends_on": "eval:doc.is_standard || frappe.boot.developer_mode",
   "fieldname": "is_standard",
   "fieldtype": "Check",
   "label": "Is Standard",
   "no_copy": 1,
   "read_only_depends_on": "eval:!frappe.boot.developer_mode"
  },
  {
   "depends_on": "eval:doc.is_standard",
   "fieldname": "module",
   "fieldtype": "Link",
   "in_standard_filter": 1,
   "label": "Module",
   "mandatory_depends_on": "eval:doc.is_standard",
   "options": "Module Def",
   "read_only_depends_on": "eval:!frappe.boot.developer_mode"
  },
  {
   "fieldname": "col_break_1",
   "fieldtype": "Column Break"
  },
  {
   "fieldname": "event",
   "fieldtype": "Select",
   "in_list_view": 1,
   "label": "Send Alert On",
   "options": "\nNew\nSave\nSubmit\nCancel\nDays After\nDays Before\nValue Change\nMethod\nCustom",
   "reqd": 1,
   "search_index": 1
  },
  {
   "depends_on": "eval:doc.event=='Method'",
   "description": "Trigger on valid methods like \"before_insert\", \"after_update\", etc (will depend on the DocType selected)",
   "fieldname": "method",
   "fieldtype": "Data",
   "label": "Trigger Method"
  },
  {
   "depends_on": "eval:doc.document_type && (doc.event==\"Days After\" || doc.event==\"Days Before\")",
   "description": "Send alert if date matches this field's value",
   "fieldname": "date_changed",
   "fieldtype": "Select",
   "label": "Reference Date"
  },
  {
   "default": "0",
   "depends_on": "eval:doc.document_type && (doc.event==\"Days After\" || doc.event==\"Days Before\")",
   "description": "Send days before or after the reference date",
   "fieldname": "days_in_advance",
   "fieldtype": "Int",
   "label": "Days Before or After"
  },
  {
   "depends_on": "eval:doc.document_type && doc.event==\"Value Change\"",
   "description": "Send alert if this field's value changes",
   "fieldname": "value_changed",
   "fieldtype": "Select",
   "label": "Value Changed"
  },
  {
   "depends_on": "eval: doc.channel == 'Email'",
   "fieldname": "sender",
   "fieldtype": "Link",
   "label": "Sender",
   "options": "Email Account"
  },
  {
   "fieldname": "sender_email",
   "fieldtype": "Data",
   "label": "Sender Email",
   "options": "Email",
   "read_only": 1
  },
  {
   "depends_on": "eval:doc.event",
   "description": "Optional: The alert will be sent if this expression is true",
   "fieldname": "condition",
   "fieldtype": "Code",
   "ignore_xss_filter": 1,
   "in_list_view": 1,
   "label": "Condition",
   "options": "PythonBlock"
  },
  {
   "depends_on": "eval:doc.event",
   "fieldname": "html_7",
   "fieldtype": "HTML",
   "options": "<p><strong>Condition Examples:</strong></p>\n<pre>doc.status==\"Open\"<br>doc.due_date==nowdate()<br>doc.total &gt; 40000\n</pre>\n"
  },
  {
   "collapsible": 1,
   "depends_on": "eval:doc.document_type && doc.event",
   "fieldname": "property_section",
   "fieldtype": "Section Break",
   "label": "Set Property After Alert"
  },
  {
   "fieldname": "set_property_after_alert",
   "fieldtype": "Select",
   "label": "Set Property After Alert"
  },
  {
   "fieldname": "property_value",
   "fieldtype": "Data",
   "label": "Value To Be Set"
  },
  {
   "collapsible": 1,
   "depends_on": "eval:doc.document_type && doc.event && doc.channel != \"External Collaboration Tool\"",
   "fieldname": "column_break_5",
   "fieldtype": "Section Break",
   "label": "Recipients"
  },
  {
   "depends_on": "eval:doc.document_type",
   "fieldname": "recipients",
   "fieldtype": "Table",
   "label": "Recipients",
   "mandatory_depends_on": "eval:doc.channel != 'External Collaboration Tool' && !doc.send_to_all_assignees",
   "options": "Notification Recipient"
  },
  {
   "collapsible": 1,
   "depends_on": "eval:doc.document_type && doc.event",
   "fieldname": "message_sb",
   "fieldtype": "Section Break",
   "label": "Message"
  },
  {
   "default": "Add your message here",
   "depends_on": "eval:(!doc.message_editor_type) || doc.message_editor_type==\"HTML Editor\"",
   "fieldname": "message",
   "fieldtype": "Code",
   "ignore_xss_filter": 1,
   "label": "Message",
   "options": "HTML"
  },
  {
   "depends_on": "eval:in_list(['Email', 'SMS', 'WhatsApp'], doc.channel)",
   "fieldname": "message_examples",
   "fieldtype": "HTML",
   "label": "Message Examples",
   "options": "<h5>Message Example</h5>\n\n<pre>&lt;h3&gt;Order Overdue&lt;/h3&gt;\n\n&lt;p&gt;Transaction {{ doc.name }} has exceeded Due Date. Please take necessary action.&lt;/p&gt;\n\n&lt;!-- show last comment --&gt;\n{% if comments %}\nLast comment: {{ comments[-1].comment }} by {{ comments[-1].by }}\n{% endif %}\n\n&lt;h4&gt;Details&lt;/h4&gt;\n\n&lt;ul&gt;\n&lt;li&gt;Customer: {{ doc.customer }}\n&lt;li&gt;Amount: {{ doc.grand_total }}\n&lt;/ul&gt;\n</pre>"
  },
  {
   "depends_on": "eval:doc.channel=='External Collaboration Tool'",
   "fieldname": "markdown_message_examples",
   "fieldtype": "HTML",
   "label": "Message Examples",
   "options": "<h5>Message Example</h5>\n\n<pre>*Order Overdue*\n\nTransaction {{ doc.name }} has exceeded Due Date. Please take necessary action.\n\n<!-- show last comment -->\n{% if comments %}\nLast comment: {{ comments[-1].comment }} by {{ comments[-1].by }}\n{% endif %}\n\n*Details*\n\n• Customer: {{ doc.customer }}\n• Amount: {{ doc.grand_total }}\n</pre>"
  },
  {
   "fieldname": "view_properties",
   "fieldtype": "Button",
   "label": "View Properties (via Customize Form)"
  },
  {
   "collapsible": 1,
   "depends_on": "eval:doc.document_type && doc.event",
   "fieldname": "column_break_25",
   "fieldtype": "Section Break",
   "label": "Attachments"
  },
  {
   "default": "0",
   "fieldname": "attach_print",
   "fieldtype": "Check",
   "label": "Attach Print"
  },
  {
   "depends_on": "attach_print",
   "fieldname": "print_format",
   "fieldtype": "Link",
   "label": "Print Format",
   "options": "Print Format"
  },
  {
   "default": "0",
   "depends_on": "eval:doc.channel && doc.channel !== 'System Notification'",
   "description": "If enabled, the notification will show up in the notifications dropdown on the top right corner of the navigation bar.",
   "fieldname": "send_system_notification",
   "fieldtype": "Check",
   "label": "Send System Notification"
  },
  {
   "default": "0",
   "depends_on": "eval:doc.channel == 'Email'",
   "fieldname": "send_to_all_assignees",
   "fieldtype": "Check",
   "label": "Send To All Assignees"
  },
  {
   "depends_on": "eval:doc.channel=='External Collaboration Tool'",
   "description": "To use an external collaboration tool Channel, add an <a href=\"/app/incoming-webhook-url\">Incoming Webhook URL</a>.",
   "fieldname": "incoming_webhook_url",
   "fieldtype": "Link",
   "label": "Collaboration Tool Incoming Webhook URL",
   "mandatory_depends_on": "eval:doc.channel=='External Collaboration Tool'",
   "options": "Incoming Webhook URL"
  },
  {
   "collapsible": 1,
   "fieldname": "expedition_section",
   "fieldtype": "Section Break",
   "label": "Sending channel"
  },
  {
   "fieldname": "column_break_10",
   "fieldtype": "Column Break"
  },
  {
   "collapsible": 1,
   "depends_on": "eval:doc.channel",
   "fieldname": "trigger_section",
   "fieldtype": "Section Break",
   "label": "Trigger"
  },
  {
   "default": "Markdown",
   "fieldname": "message_type",
   "fieldtype": "Select",
   "label": "Editor",
   "options": "Rich Text\nBlock Editor\nMarkdown\nHTML\nPlain Text"
  }
 ],
 "icon": "fa fa-envelope",
 "links": [],
 "modified": "2023-11-17 08:48:25.616203",
 "modified_by": "Administrator",
 "module": "Email",
 "name": "Notification",
 "naming_rule": "Set by user",
 "owner": "Administrator",
 "permissions": [
  {
   "create": 1,
   "delete": 1,
   "export": 1,
   "read": 1,
   "report": 1,
   "role": "System Manager",
   "share": 1,
   "write": 1
  }
 ],
 "sort_field": "modified",
 "sort_order": "DESC",
 "states": [],
 "title_field": "subject",
 "track_changes": 1,
 "translated_doctype": 1
}
